[
  {
    "name": "sqlite",
    "type": "sqlite",
    "database": "my_loot_dev.db",
    "logging": true,
    "entities": [
      "dist/web/database/entities/index.js"
    ],
    "migrationsTableName": "_migrations_",
    "migrations": [
      "dist/web/database/migrations/sqlite/index.js"
    ],
    "cli": {
      "migrationsDir": "dist/web/database/migrations/sqlite/"
    }
  },
  {
    "name": "mysql",
    "type": "mysql",
    "host": "docker.box",
    "port": 3306,
    "username": "admin",
    "password": "P@ssw0rd1234",
    "database": "my_loot_dev",
    "logging": true,
    "entities": [
      "dist/web/database/entities/index.js"
    ],
    "migrationsTableName": "_migrations_",
    "migrations": [
      "dist/web/database/migrations/mysql/index.js"
    ],
    "cli": {
      "migrationsDir": "dist/web/database/migrations/mysql/"
    }
  }
]
